{
	"ImportPath": "gitlab.com/gitlab-org/gitlab-ci-multi-runner",
	"GoVersion": "go1.4",
	"Deps": [
		{
			"ImportPath": "code.google.com/p/go.crypto/ssh",
			"Comment": "null-236",
			"Rev": "69e2a90ed92d03812364aeb947b7068dc42e561e"
		},
		{
			"ImportPath": "github.com/BurntSushi/toml",
			"Comment": "v0.1.0-9-g3883ac1",
			"Rev": "3883ac1ce943878302255f538fce319d23226223"
		},
		{
			"ImportPath": "github.com/Sirupsen/logrus",
			"Comment": "v0.8.2-2-g6ba91e2",
			"Rev": "6ba91e24c498b49d0363c723e9e2ab2b5b8fd012"
		},
		{
			"ImportPath": "github.com/ayufan/golang-kardianos-service",
			"Rev": "d114a4d2061938adacad90dc698e9214e3ff69e9"
		},
		{
			"ImportPath": "github.com/codegangsta/cli",
			"Comment": "1.2.0-42-gfbda1ce",
			"Rev": "fbda1ce02d5dabcee952040e5f4025753b6c9ce0"
		},
		{
			"ImportPath": "github.com/docker/docker/pkg/archive",
			"Comment": "v1.4.1-685-gb1f2fde",
			"Rev": "b1f2fdeee213c437a363db9eda235444ffdcc4a5"
		},
		{
			"ImportPath": "github.com/docker/docker/pkg/fileutils",
			"Comment": "v1.4.1-685-gb1f2fde",
			"Rev": "b1f2fdeee213c437a363db9eda235444ffdcc4a5"
		},
		{
			"ImportPath": "github.com/docker/docker/pkg/ioutils",
			"Comment": "v1.4.1-685-gb1f2fde",
			"Rev": "b1f2fdeee213c437a363db9eda235444ffdcc4a5"
		},
		{
			"ImportPath": "github.com/docker/docker/pkg/pools",
			"Comment": "v1.4.1-685-gb1f2fde",
			"Rev": "b1f2fdeee213c437a363db9eda235444ffdcc4a5"
		},
		{
			"ImportPath": "github.com/docker/docker/pkg/promise",
			"Comment": "v1.4.1-685-gb1f2fde",
			"Rev": "b1f2fdeee213c437a363db9eda235444ffdcc4a5"
		},
		{
			"ImportPath": "github.com/docker/docker/pkg/system",
			"Comment": "v1.4.1-685-gb1f2fde",
			"Rev": "b1f2fdeee213c437a363db9eda235444ffdcc4a5"
		},
		{
			"ImportPath": "github.com/docker/docker/vendor/src/code.google.com/p/go/src/pkg/archive/tar",
			"Comment": "v1.4.1-685-gb1f2fde",
			"Rev": "b1f2fdeee213c437a363db9eda235444ffdcc4a5"
		},
		{
			"ImportPath": "github.com/fsouza/go-dockerclient",
			"Rev": "5da2a37ecfb5bcb921a36dbc18e912c3235f139a"
		},
		{
			"ImportPath": "github.com/kardianos/osext",
			"Rev": "efacde03154693404c65e7aa7d461ac9014acd0c"
		},
		{
			"ImportPath": "gopkg.in/yaml.v1",
			"Rev": "9f9df34309c04878acc86042b16630b0f696e1de"
		}
	]
}
